module gitlab.com/ituitis20-arabaci19/golang-grpc

go 1.20

require (
	golang.org/x/net v0.7.0
	google.golang.org/grpc v1.53.0
	google.golang.org/protobuf v1.28.1
)

require (
	github.com/golang/protobuf v1.5.2 // indirect
	golang.org/x/sys v0.5.0 // indirect
	golang.org/x/text v0.7.0 // indirect
	google.golang.org/genproto v0.0.0-20230110181048-76db0878b65f // indirect
)
